{
    "dimensoes": [
        {
            "idDimensao": 1,
            "nome": "IDEIA E PROBLEMATIZAÇÃO",
            "cor": "green",
            "perguntas": [
                {
                    "idPergunta": 1,
                    "descricao": "Sua ideia apresenta solução para um problema que atinge UMA QUANTIDADE:",
                    "respostas": [
                        {
                            "alternativa": "MUITO ALTA de pessoas",
                            "valor": 5
                        },
                        {
                            "alternativa": "ALTA de pessoas",
                            "valor": 4
                        },
                        {
                            "alternativa": "MODERADA de pessoas",
                            "valor": 3
                        },
                        {
                            "alternativa": "BAIXA de pessoas",
                            "valor": 2
                        },
                        {
                            "alternativa": "MUITO BAIXA de pessoas",
                            "valor": 1
                        }
                    ]
                },
                {
                    "idPergunta": 2,
                    "descricao": "Quanto ao PROBLEMA a ser solucionado pela ideia:",
                    "respostas": [
                        {
                            "alternativa": "Está MUITO BEM definido  ",
                            "valor": 5
                        },
                        {
                            "alternativa": "Está BEM definido",
                            "valor": 4
                        },
                        {
                            "alternativa": "Está MODERADAMENTE definido",
                            "valor": 3
                        },
                        {
                            "alternativa": "Está POUCO definido",
                            "valor": 2
                        },
                        {
                            "alternativa": "Está INDEFINIDO",
                            "valor": 1
                        }
                    ]
                }
            ]
        },
        {
            "idDimensao": 2,
            "nome": "PESQUISAS, BUSCAS E CONCORRENTES",
            "cor": "red",
            "perguntas": [
                {
                    "idPergunta": 3,
                    "descricao": "Como você classifica as PESQUISAS REALIZADAS quanto à existência de ideias similares?",
                    "respostas": [
                        {
                            "alternativa": "Não foi realizada pesquisa",
                            "valor": 5
                        },
                        {
                            "alternativa": "Muito restrita",
                            "valor": 4
                        },
                        {
                            "alternativa": "Restrita",
                            "valor": 3
                        },
                        {
                            "alternativa": "Abrangente",
                            "valor": 2
                        },
                        {
                            "alternativa": "Muito abrangente",
                            "valor": 1
                        }
                    ]
                },
                {
                    "idPergunta": 4,
                    "descricao": "A QUANTIDADE de concorrentes no mercado é em número:",
                    "respostas": [
                        {
                            "alternativa": "Muito alto",
                            "valor": 5
                        },
                        {
                            "alternativa": "Alto",
                            "valor": 4
                        },
                        {
                            "alternativa": "Normal",
                            "valor": 3
                        },
                        {
                            "alternativa": "Baixo",
                            "valor": 2
                        },
                        {
                            "alternativa": "Muito baixo/Não há concorrente",
                            "valor": 1
                        }
                    ]
                },
                {
                    "idPergunta": 5,
                    "descricao": "Com relação à COMPETITIVIDADE de produtos dos concorrentes, como você classifica?",
                    "respostas": [
                        {
                            "alternativa": "Competitividade MUITO ALTA",
                            "valor": 5
                        },
                        {
                            "alternativa": "Competitividade ALTA",
                            "valor": 4
                        },
                        {
                            "alternativa": "Competitividade NORMAL",
                            "valor": 3
                        },
                        {
                            "alternativa": "Competitividade BAIXA",
                            "valor": 2
                        },
                        {
                            "alternativa": "Competitividade MUITO BAIXA/NÃO HÁ CONCORRENTES",
                            "valor": 1
                        }
                    ]
                }
            ]
        },
        {
            "idDimensao": 3,
            "nome": "POTENCIAL INOVADOR E ESCALABILIDADE",
            "cor": "green",
            "perguntas": [
                {
                    "idPergunta": 6,
                    "descricao": "Como você classifica o POTENCIAL INOVADOR da ideia?",
                    "respostas": [
                        {
                            "alternativa": "Muito alto",
                            "valor": 5
                        },
                        {
                            "alternativa": "Alto",
                            "valor": 4
                        },
                        {
                            "alternativa": "Moderado",
                            "valor": 3
                        },
                        {
                            "alternativa": "Baixo",
                            "valor": 2
                        },
                        {
                            "alternativa": "Muito baixo ou inexistente",
                            "valor": 1
                        }
                    ]
                },
                {
                    "idPergunta": 7,
                    "descricao": "Como você classifica a POSSIBILIDADE de ESCALABILIDADE da ideia?",
                    "respostas": [
                        {
                            "alternativa": "Muito elevada",
                            "valor": 5
                        },
                        {
                            "alternativa": "Elevada",
                            "valor": 4
                        },
                        {
                            "alternativa": "Moderada",
                            "valor": 3
                        },
                        {
                            "alternativa": "Baixa",
                            "valor": 2
                        },
                        {
                            "alternativa": "Muito baixa ou inexistente",
                            "valor": 1
                        }
                    ]
                }
            ]
        },
        {
            "idDimensao": 4,
            "nome": "STARTUP E REDE DE RELACIONAMENTOS ",
            "cor": "red",
            "perguntas": [
                {
                    "idPergunta": 8,
                    "descricao": "Imagine o corpo diretivo de uma empresa composto por 4 diretores: Diretor executivo (CEO), de Tecnologia, de Designer e de Vendas. Quantos desses DIRETORES têm na sua Startup?",
                    "respostas": [
                        {
                            "alternativa": "Todos",
                            "valor": 1
                        },
                        {
                            "alternativa": "3 dos 4 citados",
                            "valor": 2
                        },
                        {
                            "alternativa": "2 dos 4 citados",
                            "valor": 3
                        },
                        {
                            "alternativa": "1 dos 4 citados",
                            "valor": 4
                        },
                        {
                            "alternativa": "Está sendo definido",
                            "valor": 5
                        }
                    ]
                },
                {
                    "idPergunta": 9,
                    "descricao": "Como você classifica o ESTÁGIO atual da startup?",
                    "respostas": [
                        {
                            "alternativa": "Recém-criada",
                            "valor": 5
                        },
                        {
                            "alternativa": "Em processo de incubação",
                            "valor": 4
                        },
                        {
                            "alternativa": "Em processo de aceleração",
                            "valor": 3
                        },
                        {
                            "alternativa": "Já recebeu investimento em rodadas de negócio",
                            "valor": 2
                        },
                        {
                            "alternativa": "Já tem outros produtos/serviços no mercado",
                            "valor": 1
                        }
                    ]
                },
                {
                    "idPergunta": 10,
                    "descricao": "Qual seu grau de RELACIONAMENTO NA ÁREA a ser explorada?",
                    "respostas": [
                        {
                            "alternativa": "Muito amplo",
                            "valor": 1
                        },
                        {
                            "alternativa": "Amplo",
                            "valor": 2
                        },
                        {
                            "alternativa": "Normal",
                            "valor": 3
                        },
                        {
                            "alternativa": "Pequeno",
                            "valor": 4
                        },
                        {
                            "alternativa": "Muito pequeno/Nenhum",
                            "valor": 5
                        }
                    ]
                }
            ]
        },
        {
            "idDimensao": 5,
            "nome": "MODELO DE NEGÓCIO, MERCADO E CLIENTES",
            "cor": "green",
            "perguntas": [
                {
                    "idPergunta": 11,
                    "descricao": "Como você classifica seu MODELO DE NEGÓCIO?",
                    "respostas": [
                        {
                            "alternativa": "Muito bom",
                            "valor": 5
                        },
                        {
                            "alternativa": "Bom",
                            "valor": 4
                        },
                        {
                            "alternativa": "Regular",
                            "valor": 3
                        },
                        {
                            "alternativa": "Ruim",
                            "valor": 2
                        },
                        {
                            "alternativa": "Muito ruim",
                            "valor": 1
                        }
                    ]
                },
                {
                    "idPergunta": 12,
                    "descricao": "Como você classifica sua ideia quanto ao MERCADO e DEFINIÇÃO DE CLIENTES?",
                    "respostas": [
                        {
                            "alternativa": "Mercado AMPLO",
                            "valor": 5
                        },
                        {
                            "alternativa": "Mercado MODERADO",
                            "valor": 4
                        },
                        {
                            "alternativa": "Mercado RESTRITO",
                            "valor": 3
                        },
                        {
                            "alternativa": "Mercado muito restrito",
                            "valor": 2
                        },
                        {
                            "alternativa": "Mercado inexistente",
                            "valor": 1
                        }
                    ]
                }
            ]
        },
        {
            "idDimensao": 6,
            "nome": "TEMPO DE EXECUÇÃO, RECURSOS TÉCNICOS E ESTRUTURAIS",
            "cor": "red",
            "perguntas": [
                {
                    "idPergunta": 13,
                    "descricao": "Quanto TEMPO DE EXECUÇÃO para sua ideia ser implementada?",
                    "respostas": [
                        {
                            "alternativa": "Mais de 24 meses",
                            "valor": 5
                        },
                        {
                            "alternativa": "18 a 24 meses",
                            "valor": 4
                        },
                        {
                            "alternativa": "12 a 17 meses",
                            "valor": 3
                        },
                        {
                            "alternativa": "6 a 11 meses",
                            "valor": 2
                        },
                        {
                            "alternativa": "Menos que 6 meses",
                            "valor": 1
                        }
                    ]
                },
                {
                    "idPergunta": 14,
                    "descricao": "Como você classifica as NECESSIDADES DE ESTRUTURA e RECURSOS TÉCNICOS?",
                    "respostas": [
                        {
                            "alternativa": "Complexidade MUITO ALTA",
                            "valor": 5
                        },
                        {
                            "alternativa": "Complexidade ALTA",
                            "valor": 4
                        },
                        {
                            "alternativa": "Complexidade MÉDIA",
                            "valor": 3
                        },
                        {
                            "alternativa": "Complexidade BAIXA",
                            "valor": 2
                        },
                        {
                            "alternativa": "Complexidade MUITO BAIXA",
                            "valor": 1
                        }
                    ]
                }
            ]
        },
        {
            "idDimensao": 7,
            "nome": "CUSTOS E INVESTIMENTOS",
            "cor": "green",
            "perguntas": [
                {
                    "idPergunta": 15,
                    "descricao": "Classifique sua ideia quanto ao CUSTO DE EXECUÇÃO do projeto:",
                    "respostas": [
                        {
                            "alternativa": "Muito alto",
                            "valor": 1
                        },
                        {
                            "alternativa": "Alto",
                            "valor": 2
                        },
                        {
                            "alternativa": "Médio",
                            "valor": 3
                        },
                        {
                            "alternativa": "Baixo",
                            "valor": 4
                        },
                        {
                            "alternativa": "Muito Baixo",
                            "valor": 5
                        }
                    ]
                },
                {
                    "idPergunta": 16,
                    "descricao": "Quanto à NECESSIDADE DE INVESTIDOR EXTERNO, em qual opção a seguir sua ideia se enquadra?",
                    "respostas": [
                        {
                            "alternativa": "Necessita de um valor MUITO ELEVADO",
                            "valor": 1
                        },
                        {
                            "alternativa": "Necessita de um valor ELEVADO",
                            "valor": 2
                        },
                        {
                            "alternativa": "Necessita de um valor BAIXO",
                            "valor": 3
                        },
                        {
                            "alternativa": "Necessita de um valor MUITO BAIXO",
                            "valor": 4
                        },
                        {
                            "alternativa": "NÃO HÁ necessidade",
                            "valor": 5
                        }
                    ]
                }
            ]
        },
        {
            "idDimensao": 8,
            "nome": "EQUIPE, DISPONIBILIDADE E MOTIVAÇÃO",
            "cor": "red",
            "perguntas": [
                {
                    "idPergunta": 17,
                    "descricao": "Quanto à NECESSIDADE DE COLABOLADORES na execução do projeto, qual deve ser o TAMANHO DA EQUIPE?",
                    "respostas": [
                        {
                            "alternativa": "Menos de 6 membros",
                            "valor": 1
                        },
                        {
                            "alternativa": "De 7 a 9 membros",
                            "valor": 2
                        },
                        {
                            "alternativa": "De 10 a 12 membros",
                            "valor": 3
                        },
                        {
                            "alternativa": "De 13 a 15 membros",
                            "valor": 4
                        },
                        {
                            "alternativa": "Mais que 15 membros",
                            "valor": 5
                        }
                    ]
                },
                {
                    "idPergunta": 18,
                    "descricao": "Quanto à disponibilidade da equipe, quantas horas SEMANAIS serão necessárias?",
                    "respostas": [
                        {
                            "alternativa": "Menos que 10 horas",
                            "valor": 5
                        },
                        {
                            "alternativa": "De 10 a 19 horas",
                            "valor": 4
                        },
                        {
                            "alternativa": "De 20 a 29 horas",
                            "valor": 3
                        },
                        {
                            "alternativa": "De 30 a 39 horas",
                            "valor": 2
                        },
                        {
                            "alternativa": "Mais de 40 horas",
                            "valor": 1
                        }
                    ]
                }
            ]
        },
        {
            "idDimensao": 9,
            "nome": "PROTÓTIPO, LESGISLAÇÕES E REGULAMNETAÇÕES",
            "cor": "green",
            "perguntas": [
                {
                    "idPergunta": 19,
                    "descricao": "Quanto a PROTOTIPAÇÃO, como está seu projeto?",
                    "respostas": [
                        {
                            "alternativa": "Protótipo desenvolvido, testado e validado",
                            "valor": 5
                        },
                        {
                            "alternativa": "Protótipo desenvolvido, testado e com melhoramento",
                            "valor": 4
                        },
                        {
                            "alternativa": "Protótipo desenvolvido e testado",
                            "valor": 3
                        },
                        {
                            "alternativa": "Protótipo desenvolvido",
                            "valor": 2
                        },
                        {
                            "alternativa": "Ainda não tem protótipo",
                            "valor": 1
                        }
                    ]
                },
                {
                    "idPergunta": 20,
                    "descricao": "Como você classifica o COMPROMETIMENTO DO ANDAMENTO do projeto devido à necessidade de legislação e regulamentação para a ideia virar produto?",
                    "respostas": [
                        {
                            "alternativa": "Não necessita de legislação",
                            "valor": 5
                        },
                        {
                            "alternativa": "BAIXO comprometimento",
                            "valor": 4
                        },
                        {
                            "alternativa": "MÉDIO comprometimento",
                            "valor": 3
                        },
                        {
                            "alternativa": "ALTO comprometimento",
                            "valor": 2
                        },
                        {
                            "alternativa": "ELEVADO comprometimento",
                            "valor": 1
                        }
                    ]
                }
            ]
        },
        {
            "idDimensao": 10,
            "nome": "ÁREA EXPLORADA, METAS E INDICADORES",
            "cor": "red",
            "perguntas": [
                {
                    "idPergunta": 21,
                    "descricao": "Como você classifica a necessidade de INSERÇÃO DA TECNOLOGIA DE INFORMAÇÃO?",
                    "respostas": [
                        {
                            "alternativa": "Muito alta",
                            "valor": 1
                        },
                        {
                            "alternativa": "Alta",
                            "valor": 2
                        },
                        {
                            "alternativa": "Média",
                            "valor": 3
                        },
                        {
                            "alternativa": "Baixa",
                            "valor": 4
                        },
                        {
                            "alternativa": "Muito baixa ou Nenhuma",
                            "valor": 5
                        }
                    ]
                },
                {
                    "idPergunta": 22,
                    "descricao": "Em que situação se encontra seu projeto com relação à definição de INDICADORES?",
                    "respostas": [
                        {
                            "alternativa": "MUITO BEM definidos",
                            "valor": 1
                        },
                        {
                            "alternativa": "BEM definidos",
                            "valor": 2
                        },
                        {
                            "alternativa": "MODERADAMENTE definidos",
                            "valor": 3
                        },
                        {
                            "alternativa": "POUCO definidos",
                            "valor": 4
                        },
                        {
                            "alternativa": "INDEFINIDOS / SEM INDICADORES definidos",
                            "valor": 5
                        }
                    ]
                },
                {
                    "idPergunta": 23,
                    "descricao": "Como você classifica seu projeto quanto ao estabelecimento de METAS?",
                    "respostas": [
                        {
                            "alternativa": "MUITO BEM estabelecidas",
                            "valor": 1
                        },
                        {
                            "alternativa": "BEM estabelecidas",
                            "valor": 2
                        },
                        {
                            "alternativa": "MODERADAMENTE estabelecidas",
                            "valor": 3
                        },
                        {
                            "alternativa": "POUCO estabelecidas",
                            "valor": 4
                        },
                        {
                            "alternativa": "DESCONHECIDAS / SEM METAS estabelecidas",
                            "valor": 5
                        }
                    ]
                }
            ]
        }
    ]
}